%YAML 1.1
%TAG !u! tag:unity3d.com,2011:
--- !u!114 &11400000
MonoBehaviour:
  m_ObjectHideFlags: 0
  m_CorrespondingSourceObject: {fileID: 0}
  m_PrefabInstance: {fileID: 0}
  m_PrefabAsset: {fileID: 0}
  m_GameObject: {fileID: 0}
  m_Enabled: 1
  m_EditorHideFlags: 0
  m_Script: {fileID: 11500000, guid: 35f25c97f764a5640955d36ac0fadef0, type: 3}
  m_Name: SkeletonSettings
  m_EditorClassIdentifier: 
  AttackDistance: 1
  AttackCooldown: 2
  WalkSpeed: 1
  RunSpeed: 2
  MaxHealth: 10
  CanFly: 0
