%YAML 1.1
%TAG !u! tag:unity3d.com,2011:
--- !u!114 &11400000
MonoBehaviour:
  m_ObjectHideFlags: 0
  m_CorrespondingSourceObject: {fileID: 0}
  m_PrefabInstance: {fileID: 0}
  m_PrefabAsset: {fileID: 0}
  m_GameObject: {fileID: 0}
  m_Enabled: 1
  m_EditorHideFlags: 0
  m_Script: {fileID: 11500000, guid: 84f297c6e9211574fab7f73480308c8c, type: 3}
  m_Name: AlwaysLevelCompletedMapSettings
  m_EditorClassIdentifier: 
  MapSize: {x: 0, y: 0}
  Walkable: 
  MaxAlphaVisibility: 
  Flyable: 
  SoundLevel: 
  LevelCompleted: 1
